2018-11-21 08:48:48,197 DEBUG    root            Loaded Command Group: [u'gcloud', u'auth']
2018-11-21 08:48:48,205 DEBUG    root            Loaded Command Group: [u'gcloud', u'auth', u'list']
2018-11-21 08:48:48,208 DEBUG    root            Running [gcloud.auth.list] with arguments: [--filter: "status:ACTIVE", --format: "value(account)"]
2018-11-21 08:48:48,382 INFO     root            Display format: "    table[title='Credentialed Accounts'](
        status.yesno(yes='*', no=''):label=ACTIVE,
        account
    ) value(account)"
2018-11-21 08:48:48,383 INFO     ___FILE_ONLY___ 538990451402-compute@developer.gserviceaccount.com

